{
	"@class": "com.htc.ea.util.dto.ConfigurationData",
	"id": null,
	"applicationId": "htc-test",
	"environmentId": "development",
	"version": "1.0",
	"eventLevel": 1,
	"eventCategories": [
		"java.util.HashSet",
		[
			"service",
			"consumer",
			"rpg-function",
			"controller"
		]
	],
	"configEntries": {
		"@class": "java.util.HashMap",
		"wss.sso.username": {
			"@class": "com.htc.ea.util.dto.ConfigEntryData",
			"key": "wss.sso.username",
			"value": "activadorregional",
			"type": "property",
			"dataType": "string",
			"singleValue": true,
			"enabled": true,
			"values": [
				"java.util.HashSet",
				[]
			]
		}
	}
}